{
    "NativeFunctionAPI": {
        "iOS": {
            "11.0": {
                "Kony_SDKCommons-iOS-11.0": {
                    "title": "Kony_SDKCommons",
                    "platform": "iOS",
                    "os": "11.0",
                    "url": "/Applications/KonyVisualizerEnterprise8/Kony_Visualizer_Enterprise/configuration/org.eclipse.osgi/bundles/540/1/.cp/resources/sdk/nativeBindings/Kony_SDKCommons-iOS-11.0.zip",
                    "filepath": "/Users/kony/Work/Kony/KonyVizEWS/ImportSample/nativebindings/iOS/11.0/Kony_SDKCommons-iOS-11.0.zip",
                    "enable": true
                },
                "Kony_SyncV2-iOS-11.0": {
                    "title": "Kony_SyncV2",
                    "platform": "iOS",
                    "os": "11.0",
                    "url": "/Applications/KonyVisualizerEnterprise8/Kony_Visualizer_Enterprise/configuration/org.eclipse.osgi/bundles/540/1/.cp/resources/sdk/nativeBindings/Kony_SyncV2-iOS-11.0.zip",
                    "filepath": "/Users/kony/Work/Kony/KonyVizEWS/ImportSample/nativebindings/iOS/11.0/Kony_SyncV2-iOS-11.0.zip",
                    "enable": true
                }
            }
        },
        "Android": {
            "4.0": {
                "Kony_SDKCommons-Android-4.0": {
                    "title": "Kony_SDKCommons",
                    "platform": "Android",
                    "os": "4.0",
                    "url": "/Applications/KonyVisualizerEnterprise8/Kony_Visualizer_Enterprise/configuration/org.eclipse.osgi/bundles/540/1/.cp/resources/sdk/nativeBindings/Kony_SDKCommons-Android-4.0.zip",
                    "filepath": "/Users/kony/Work/Kony/KonyVizEWS/ImportSample/nativebindings/Android/4.0/Kony_SDKCommons-Android-4.0.zip",
                    "enable": true
                },
                "Kony_SyncV2-Android-4.0": {
                    "title": "Kony_SyncV2",
                    "platform": "Android",
                    "os": "4.0",
                    "url": "/Applications/KonyVisualizerEnterprise8/Kony_Visualizer_Enterprise/configuration/org.eclipse.osgi/bundles/540/1/.cp/resources/sdk/nativeBindings/Kony_SyncV2-Android-4.0.zip",
                    "filepath": "/Users/kony/Work/Kony/KonyVizEWS/ImportSample/nativebindings/Android/4.0/Kony_SyncV2-Android-4.0.zip",
                    "enable": true
                }
            }
        }
    }
}